{
  "project_info": {
    "project_number": "22278418164",
    "firebase_url": "https://empleos1-2020.firebaseio.com",
    "project_id": "empleos1-2020",
    "storage_bucket": "empleos1-2020.appspot.com"
  },
  "client": [
    {
      "client_info": {
        "mobilesdk_app_id": "1:22278418164:android:383c7fbc0fe52d572df8a1",
        "android_client_info": {
          "package_name": "ec.edu.ups.pm.empleos12020"
        }
      },
      "oauth_client": [
        {
          "client_id": "22278418164-pokliff9brvrnseq9nujou07g74cgmvv.apps.googleusercontent.com",
          "client_type": 3
        }
      ],
      "api_key": [
        {
          "current_key": "AIzaSyAzSiy6tm8BwdiO2nR0H1CjzzvJmp-zvnI"
        }
      ],
      "services": {
        "appinvite_service": {
          "other_platform_oauth_client": [
            {
              "client_id": "22278418164-pokliff9brvrnseq9nujou07g74cgmvv.apps.googleusercontent.com",
              "client_type": 3
            }
          ]
        }
      }
    }
  ],
  "configuration_version": "1"
}